%YAML 1.1
%TAG !u! tag:unity3d.com,2011:
--- !u!1 &4343834459430714928
GameObject:
  m_ObjectHideFlags: 0
  m_CorrespondingSourceObject: {fileID: 0}
  m_PrefabInstance: {fileID: 0}
  m_PrefabAsset: {fileID: 0}
  serializedVersion: 6
  m_Component:
  - component: {fileID: 725994015633247267}
  - component: {fileID: 8595182607777281557}
  - component: {fileID: 2626918416155790060}
  - component: {fileID: 243477596193573259}
  m_Layer: 0
  m_Name: Rock4
  m_TagString: Untagged
  m_Icon: {fileID: 0}
  m_NavMeshLayer: 0
  m_StaticEditorFlags: 0
  m_IsActive: 1
--- !u!4 &725994015633247267
Transform:
  m_ObjectHideFlags: 0
  m_CorrespondingSourceObject: {fileID: 0}
  m_PrefabInstance: {fileID: 0}
  m_PrefabAsset: {fileID: 0}
  m_GameObject: {fileID: 4343834459430714928}
  m_LocalRotation: {x: -0, y: -0, z: -0, w: 1}
  m_LocalPosition: {x: 0, y: 0, z: 0}
  m_LocalScale: {x: 1, y: 1, z: 1}
  m_Children:
  - {fileID: 3258979897742015267}
  m_Father: {fileID: 0}
  m_RootOrder: 0
  m_LocalEulerAnglesHint: {x: 0, y: 0, z: 0}
--- !u!33 &8595182607777281557
MeshFilter:
  m_ObjectHideFlags: 0
  m_CorrespondingSourceObject: {fileID: 0}
  m_PrefabInstance: {fileID: 0}
  m_PrefabAsset: {fileID: 0}
  m_GameObject: {fileID: 4343834459430714928}
  m_Mesh: {fileID: -1308591888722446975, guid: dd796bed3f8c8094c93ddab860643608, type: 3}
--- !u!23 &2626918416155790060
MeshRenderer:
  m_ObjectHideFlags: 0
  m_CorrespondingSourceObject: {fileID: 0}
  m_PrefabInstance: {fileID: 0}
  m_PrefabAsset: {fileID: 0}
  m_GameObject: {fileID: 4343834459430714928}
  m_Enabled: 1
  m_CastShadows: 1
  m_ReceiveShadows: 1
  m_DynamicOccludee: 1
  m_MotionVectors: 1
  m_LightProbeUsage: 1
  m_ReflectionProbeUsage: 1
  m_RenderingLayerMask: 1
  m_RendererPriority: 0
  m_Materials:
  - {fileID: -2551240767032753910, guid: dd796bed3f8c8094c93ddab860643608, type: 3}
  - {fileID: -2959283651340661505, guid: dd796bed3f8c8094c93ddab860643608, type: 3}
  m_StaticBatchInfo:
    firstSubMesh: 0
    subMeshCount: 0
  m_StaticBatchRoot: {fileID: 0}
  m_ProbeAnchor: {fileID: 0}
  m_LightProbeVolumeOverride: {fileID: 0}
  m_ScaleInLightmap: 1
  m_ReceiveGI: 1
  m_PreserveUVs: 0
  m_IgnoreNormalsForChartDetection: 0
  m_ImportantGI: 0
  m_StitchLightmapSeams: 1
  m_SelectedEditorRenderState: 3
  m_MinimumChartSize: 4
  m_AutoUVMaxDistance: 0.5
  m_AutoUVMaxAngle: 89
  m_LightmapParameters: {fileID: 0}
  m_SortingLayerID: 0
  m_SortingLayer: 0
  m_SortingOrder: 0
--- !u!114 &243477596193573259
MonoBehaviour:
  m_ObjectHideFlags: 0
  m_CorrespondingSourceObject: {fileID: 0}
  m_PrefabInstance: {fileID: 0}
  m_PrefabAsset: {fileID: 0}
  m_GameObject: {fileID: 4343834459430714928}
  m_Enabled: 1
  m_EditorHideFlags: 0
  m_Script: {fileID: 11500000, guid: 07b77bdaf4aaa5441b070fd759c238e8, type: 3}
  m_Name: 
  m_EditorClassIdentifier: 
  coord: {x: 0, y: 0}
  IsAccessible: 0
  item: {fileID: 1972964952576346416}
--- !u!1001 &3666768052062886517
PrefabInstance:
  m_ObjectHideFlags: 0
  serializedVersion: 2
  m_Modification:
    m_TransformParent: {fileID: 725994015633247267}
    m_Modifications:
    - target: {fileID: 2991405235352523589, guid: c113636ce68729447956f792c5095ae5,
        type: 3}
      propertyPath: m_Name
      value: rock_large4
      objectReference: {fileID: 0}
    - target: {fileID: 2294798340018708822, guid: c113636ce68729447956f792c5095ae5,
        type: 3}
      propertyPath: m_LocalPosition.x
      value: 5
      objectReference: {fileID: 0}
    - target: {fileID: 2294798340018708822, guid: c113636ce68729447956f792c5095ae5,
        type: 3}
      propertyPath: m_LocalPosition.y
      value: 2.5
      objectReference: {fileID: 0}
    - target: {fileID: 2294798340018708822, guid: c113636ce68729447956f792c5095ae5,
        type: 3}
      propertyPath: m_LocalPosition.z
      value: 5
      objectReference: {fileID: 0}
    - target: {fileID: 2294798340018708822, guid: c113636ce68729447956f792c5095ae5,
        type: 3}
      propertyPath: m_LocalRotation.x
      value: 0
      objectReference: {fileID: 0}
    - target: {fileID: 2294798340018708822, guid: c113636ce68729447956f792c5095ae5,
        type: 3}
      propertyPath: m_LocalRotation.y
      value: -0
      objectReference: {fileID: 0}
    - target: {fileID: 2294798340018708822, guid: c113636ce68729447956f792c5095ae5,
        type: 3}
      propertyPath: m_LocalRotation.z
      value: -0
      objectReference: {fileID: 0}
    - target: {fileID: 2294798340018708822, guid: c113636ce68729447956f792c5095ae5,
        type: 3}
      propertyPath: m_LocalRotation.w
      value: 1
      objectReference: {fileID: 0}
    - target: {fileID: 2294798340018708822, guid: c113636ce68729447956f792c5095ae5,
        type: 3}
      propertyPath: m_RootOrder
      value: 0
      objectReference: {fileID: 0}
    - target: {fileID: 2294798340018708822, guid: c113636ce68729447956f792c5095ae5,
        type: 3}
      propertyPath: m_LocalEulerAnglesHint.x
      value: 0
      objectReference: {fileID: 0}
    - target: {fileID: 2294798340018708822, guid: c113636ce68729447956f792c5095ae5,
        type: 3}
      propertyPath: m_LocalEulerAnglesHint.y
      value: 0
      objectReference: {fileID: 0}
    - target: {fileID: 2294798340018708822, guid: c113636ce68729447956f792c5095ae5,
        type: 3}
      propertyPath: m_LocalEulerAnglesHint.z
      value: 0
      objectReference: {fileID: 0}
    m_RemovedComponents: []
  m_SourcePrefab: {fileID: 100100000, guid: c113636ce68729447956f792c5095ae5, type: 3}
--- !u!1 &1972964952576346416 stripped
GameObject:
  m_CorrespondingSourceObject: {fileID: 2991405235352523589, guid: c113636ce68729447956f792c5095ae5,
    type: 3}
  m_PrefabInstance: {fileID: 3666768052062886517}
  m_PrefabAsset: {fileID: 0}
--- !u!4 &3258979897742015267 stripped
Transform:
  m_CorrespondingSourceObject: {fileID: 2294798340018708822, guid: c113636ce68729447956f792c5095ae5,
    type: 3}
  m_PrefabInstance: {fileID: 3666768052062886517}
  m_PrefabAsset: {fileID: 0}
